<?xml version="1.0" encoding="UTF-8"?>
<svg width="122px" height="122px" viewBox="0 0 122 122" version="1.1" xmlns="http://www.w3.org/2000/svg" xmlns:xlink="http://www.w3.org/1999/xlink">
    <!-- Generator: Sketch 52.2 (67145) - http://www.bohemiancoding.com/sketch -->
    <title>180421102758</title>
    <desc>Created with Sketch.</desc>
    <g id="Page-1" stroke="none" stroke-width="1" fill="none" fill-rule="evenodd">
        <g id="Desktop-HD-Copy-64" transform="translate(-735.000000, -565.000000)" fill="#000000" fill-rule="nonzero">
            <g id="180421102758" transform="translate(735.000000, 565.000000)">
                <rect id="Rectangle-path" x="0" y="0" width="3.6969697" height="3.6969697"></rect>
                <rect id="Rectangle-path" x="3.6969697" y="0" width="3.6969697" height="3.6969697"></rect>
                <rect id="Rectangle-path" x="7.39393939" y="0" width="3.6969697" height="3.6969697"></rect>
                <rect id="Rectangle-path" x="11.0909091" y="0" width="3.6969697" height="3.6969697"></rect>
                <rect id="Rectangle-path" x="14.7878788" y="0" width="3.6969697" height="3.6969697"></rect>
                <rect id="Rectangle-path" x="18.4848485" y="0" width="3.6969697" height="3.6969697"></rect>
                <rect id="Rectangle-path" x="22.1818182" y="0" width="3.6969697" height="3.6969697"></rect>
                <rect id="Rectangle-path" x="40.6666667" y="0" width="3.6969697" height="3.6969697"></rect>
                <rect id="Rectangle-path" x="48.0606061" y="0" width="3.6969697" height="3.6969697"></rect>
                <rect id="Rectangle-path" x="59.1515152" y="0" width="3.6969697" height="3.6969697"></rect>
                <rect id="Rectangle-path" x="62.8484848" y="0" width="3.6969697" height="3.6969697"></rect>
                <rect id="Rectangle-path" x="66.5454545" y="0" width="3.6969697" height="3.6969697"></rect>
                <rect id="Rectangle-path" x="70.2424242" y="0" width="3.6969697" height="3.6969697"></rect>
                <rect id="Rectangle-path" x="73.9393939" y="0" width="3.6969697" height="3.6969697"></rect>
                <rect id="Rectangle-path" x="85.030303" y="0" width="3.6969697" height="3.6969697"></rect>
                <rect id="Rectangle-path" x="96.1212121" y="0" width="3.6969697" height="3.6969697"></rect>
                <rect id="Rectangle-path" x="99.8181818" y="0" width="3.6969697" height="3.6969697"></rect>
                <rect id="Rectangle-path" x="103.515152" y="0" width="3.6969697" height="3.6969697"></rect>
                <rect id="Rectangle-path" x="107.212121" y="0" width="3.6969697" height="3.6969697"></rect>
                <rect id="Rectangle-path" x="110.909091" y="0" width="3.6969697" height="3.6969697"></rect>
                <rect id="Rectangle-path" x="114.606061" y="0" width="3.6969697" height="3.6969697"></rect>
                <rect id="Rectangle-path" x="118.30303" y="0" width="3.6969697" height="3.6969697"></rect>
                <rect id="Rectangle-path" x="0" y="3.6969697" width="3.6969697" height="3.6969697"></rect>
                <rect id="Rectangle-path" x="22.1818182" y="3.6969697" width="3.6969697" height="3.6969697"></rect>
                <rect id="Rectangle-path" x="33.2727273" y="3.6969697" width="3.6969697" height="3.6969697"></rect>
                <rect id="Rectangle-path" x="44.3636364" y="3.6969697" width="3.6969697" height="3.6969697"></rect>
                <rect id="Rectangle-path" x="48.0606061" y="3.6969697" width="3.6969697" height="3.6969697"></rect>
                <rect id="Rectangle-path" x="51.7575758" y="3.6969697" width="3.6969697" height="3.6969697"></rect>
                <rect id="Rectangle-path" x="55.4545455" y="3.6969697" width="3.6969697" height="3.6969697"></rect>
                <rect id="Rectangle-path" x="59.1515152" y="3.6969697" width="3.6969697" height="3.6969697"></rect>
                <rect id="Rectangle-path" x="62.8484848" y="3.6969697" width="3.6969697" height="3.6969697"></rect>
                <rect id="Rectangle-path" x="81.3333333" y="3.6969697" width="3.6969697" height="3.6969697"></rect>
                <rect id="Rectangle-path" x="96.1212121" y="3.6969697" width="3.6969697" height="3.6969697"></rect>
                <rect id="Rectangle-path" x="118.30303" y="3.6969697" width="3.6969697" height="3.6969697"></rect>
                <rect id="Rectangle-path" x="0" y="7.39393939" width="3.6969697" height="3.6969697"></rect>
                <rect id="Rectangle-path" x="7.39393939" y="7.39393939" width="3.6969697" height="3.6969697"></rect>
                <rect id="Rectangle-path" x="11.0909091" y="7.39393939" width="3.6969697" height="3.6969697"></rect>
                <rect id="Rectangle-path" x="14.7878788" y="7.39393939" width="3.6969697" height="3.6969697"></rect>
                <rect id="Rectangle-path" x="22.1818182" y="7.39393939" width="3.6969697" height="3.6969697"></rect>
                <rect id="Rectangle-path" x="29.5757576" y="7.39393939" width="3.6969697" height="3.6969697"></rect>
                <rect id="Rectangle-path" x="48.0606061" y="7.39393939" width="3.6969697" height="3.6969697"></rect>
                <rect id="Rectangle-path" x="59.1515152" y="7.39393939" width="3.6969697" height="3.6969697"></rect>
                <rect id="Rectangle-path" x="62.8484848" y="7.39393939" width="3.6969697" height="3.6969697"></rect>
                <rect id="Rectangle-path" x="66.5454545" y="7.39393939" width="3.6969697" height="3.6969697"></rect>
                <rect id="Rectangle-path" x="73.9393939" y="7.39393939" width="3.6969697" height="3.6969697"></rect>
                <rect id="Rectangle-path" x="88.7272727" y="7.39393939" width="3.6969697" height="3.6969697"></rect>
                <rect id="Rectangle-path" x="96.1212121" y="7.39393939" width="3.6969697" height="3.6969697"></rect>
                <rect id="Rectangle-path" x="103.515152" y="7.39393939" width="3.6969697" height="3.6969697"></rect>
                <rect id="Rectangle-path" x="107.212121" y="7.39393939" width="3.6969697" height="3.6969697"></rect>
                <rect id="Rectangle-path" x="110.909091" y="7.39393939" width="3.6969697" height="3.6969697"></rect>
                <rect id="Rectangle-path" x="118.30303" y="7.39393939" width="3.6969697" height="3.6969697"></rect>
                <rect id="Rectangle-path" x="0" y="11.0909091" width="3.6969697" height="3.6969697"></rect>
                <rect id="Rectangle-path" x="7.39393939" y="11.0909091" width="3.6969697" height="3.6969697"></rect>
                <rect id="Rectangle-path" x="11.0909091" y="11.0909091" width="3.6969697" height="3.6969697"></rect>
                <rect id="Rectangle-path" x="14.7878788" y="11.0909091" width="3.6969697" height="3.6969697"></rect>
                <rect id="Rectangle-path" x="22.1818182" y="11.0909091" width="3.6969697" height="3.6969697"></rect>
                <rect id="Rectangle-path" x="29.5757576" y="11.0909091" width="3.6969697" height="3.6969697"></rect>
                <rect id="Rectangle-path" x="51.7575758" y="11.0909091" width="3.6969697" height="3.6969697"></rect>
                <rect id="Rectangle-path" x="59.1515152" y="11.0909091" width="3.6969697" height="3.6969697"></rect>
                <rect id="Rectangle-path" x="73.9393939" y="11.0909091" width="3.6969697" height="3.6969697"></rect>
                <rect id="Rectangle-path" x="77.6363636" y="11.0909091" width="3.6969697" height="3.6969697"></rect>
                <rect id="Rectangle-path" x="81.3333333" y="11.0909091" width="3.6969697" height="3.6969697"></rect>
                <rect id="Rectangle-path" x="85.030303" y="11.0909091" width="3.6969697" height="3.6969697"></rect>
                <rect id="Rectangle-path" x="88.7272727" y="11.0909091" width="3.6969697" height="3.6969697"></rect>
                <rect id="Rectangle-path" x="96.1212121" y="11.0909091" width="3.6969697" height="3.6969697"></rect>
                <rect id="Rectangle-path" x="103.515152" y="11.0909091" width="3.6969697" height="3.6969697"></rect>
                <rect id="Rectangle-path" x="107.212121" y="11.0909091" width="3.6969697" height="3.6969697"></rect>
                <rect id="Rectangle-path" x="110.909091" y="11.0909091" width="3.6969697" height="3.6969697"></rect>
                <rect id="Rectangle-path" x="118.30303" y="11.0909091" width="3.6969697" height="3.6969697"></rect>
                <rect id="Rectangle-path" x="0" y="14.7878788" width="3.6969697" height="3.6969697"></rect>
                <rect id="Rectangle-path" x="7.39393939" y="14.7878788" width="3.6969697" height="3.6969697"></rect>
                <rect id="Rectangle-path" x="11.0909091" y="14.7878788" width="3.6969697" height="3.6969697"></rect>
                <rect id="Rectangle-path" x="14.7878788" y="14.7878788" width="3.6969697" height="3.6969697"></rect>
                <rect id="Rectangle-path" x="22.1818182" y="14.7878788" width="3.6969697" height="3.6969697"></rect>
                <rect id="Rectangle-path" x="29.5757576" y="14.7878788" width="3.6969697" height="3.6969697"></rect>
                <rect id="Rectangle-path" x="33.2727273" y="14.7878788" width="3.6969697" height="3.6969697"></rect>
                <rect id="Rectangle-path" x="36.969697" y="14.7878788" width="3.6969697" height="3.6969697"></rect>
                <rect id="Rectangle-path" x="55.4545455" y="14.7878788" width="3.6969697" height="3.6969697"></rect>
                <rect id="Rectangle-path" x="62.8484848" y="14.7878788" width="3.6969697" height="3.6969697"></rect>
                <rect id="Rectangle-path" x="66.5454545" y="14.7878788" width="3.6969697" height="3.6969697"></rect>
                <rect id="Rectangle-path" x="77.6363636" y="14.7878788" width="3.6969697" height="3.6969697"></rect>
                <rect id="Rectangle-path" x="88.7272727" y="14.7878788" width="3.6969697" height="3.6969697"></rect>
                <rect id="Rectangle-path" x="96.1212121" y="14.7878788" width="3.6969697" height="3.6969697"></rect>
                <rect id="Rectangle-path" x="103.515152" y="14.7878788" width="3.6969697" height="3.6969697"></rect>
                <rect id="Rectangle-path" x="107.212121" y="14.7878788" width="3.6969697" height="3.6969697"></rect>
                <rect id="Rectangle-path" x="110.909091" y="14.7878788" width="3.6969697" height="3.6969697"></rect>
                <rect id="Rectangle-path" x="118.30303" y="14.7878788" width="3.6969697" height="3.6969697"></rect>
                <rect id="Rectangle-path" x="0" y="18.4848485" width="3.6969697" height="3.6969697"></rect>
                <rect id="Rectangle-path" x="22.1818182" y="18.4848485" width="3.6969697" height="3.6969697"></rect>
                <rect id="Rectangle-path" x="29.5757576" y="18.4848485" width="3.6969697" height="3.6969697"></rect>
                <rect id="Rectangle-path" x="36.969697" y="18.4848485" width="3.6969697" height="3.6969697"></rect>
                <rect id="Rectangle-path" x="48.0606061" y="18.4848485" width="3.6969697" height="3.6969697"></rect>
                <rect id="Rectangle-path" x="51.7575758" y="18.4848485" width="3.6969697" height="3.6969697"></rect>
                <rect id="Rectangle-path" x="55.4545455" y="18.4848485" width="3.6969697" height="3.6969697"></rect>
                <rect id="Rectangle-path" x="59.1515152" y="18.4848485" width="3.6969697" height="3.6969697"></rect>
                <rect id="Rectangle-path" x="62.8484848" y="18.4848485" width="3.6969697" height="3.6969697"></rect>
                <rect id="Rectangle-path" x="73.9393939" y="18.4848485" width="3.6969697" height="3.6969697"></rect>
                <rect id="Rectangle-path" x="81.3333333" y="18.4848485" width="3.6969697" height="3.6969697"></rect>
                <rect id="Rectangle-path" x="96.1212121" y="18.4848485" width="3.6969697" height="3.6969697"></rect>
                <rect id="Rectangle-path" x="118.30303" y="18.4848485" width="3.6969697" height="3.6969697"></rect>
                <rect id="Rectangle-path" x="0" y="22.1818182" width="3.6969697" height="3.6969697"></rect>
                <rect id="Rectangle-path" x="3.6969697" y="22.1818182" width="3.6969697" height="3.6969697"></rect>
                <rect id="Rectangle-path" x="7.39393939" y="22.1818182" width="3.6969697" height="3.6969697"></rect>
                <rect id="Rectangle-path" x="11.0909091" y="22.1818182" width="3.6969697" height="3.6969697"></rect>
                <rect id="Rectangle-path" x="14.7878788" y="22.1818182" width="3.6969697" height="3.6969697"></rect>
                <rect id="Rectangle-path" x="18.4848485" y="22.1818182" width="3.6969697" height="3.6969697"></rect>
                <rect id="Rectangle-path" x="22.1818182" y="22.1818182" width="3.6969697" height="3.6969697"></rect>
                <rect id="Rectangle-path" x="29.5757576" y="22.1818182" width="3.6969697" height="3.6969697"></rect>
                <rect id="Rectangle-path" x="36.969697" y="22.1818182" width="3.6969697" height="3.6969697"></rect>
                <rect id="Rectangle-path" x="44.3636364" y="22.1818182" width="3.6969697" height="3.6969697"></rect>
                <rect id="Rectangle-path" x="51.7575758" y="22.1818182" width="3.6969697" height="3.6969697"></rect>
                <rect id="Rectangle-path" x="59.1515152" y="22.1818182" width="3.6969697" height="3.6969697"></rect>
                <rect id="Rectangle-path" x="66.5454545" y="22.1818182" width="3.6969697" height="3.6969697"></rect>
                <rect id="Rectangle-path" x="73.9393939" y="22.1818182" width="3.6969697" height="3.6969697"></rect>
                <rect id="Rectangle-path" x="81.3333333" y="22.1818182" width="3.6969697" height="3.6969697"></rect>
                <rect id="Rectangle-path" x="88.7272727" y="22.1818182" width="3.6969697" height="3.6969697"></rect>
                <rect id="Rectangle-path" x="96.1212121" y="22.1818182" width="3.6969697" height="3.6969697"></rect>
                <rect id="Rectangle-path" x="99.8181818" y="22.1818182" width="3.6969697" height="3.6969697"></rect>
                <rect id="Rectangle-path" x="103.515152" y="22.1818182" width="3.6969697" height="3.6969697"></rect>
                <rect id="Rectangle-path" x="107.212121" y="22.1818182" width="3.6969697" height="3.6969697"></rect>
                <rect id="Rectangle-path" x="110.909091" y="22.1818182" width="3.6969697" height="3.6969697"></rect>
                <rect id="Rectangle-path" x="114.606061" y="22.1818182" width="3.6969697" height="3.6969697"></rect>
                <rect id="Rectangle-path" x="118.30303" y="22.1818182" width="3.6969697" height="3.6969697"></rect>
                <rect id="Rectangle-path" x="29.5757576" y="25.8787879" width="3.6969697" height="3.6969697"></rect>
                <rect id="Rectangle-path" x="40.6666667" y="25.8787879" width="3.6969697" height="3.6969697"></rect>
                <rect id="Rectangle-path" x="44.3636364" y="25.8787879" width="3.6969697" height="3.6969697"></rect>
                <rect id="Rectangle-path" x="55.4545455" y="25.8787879" width="3.6969697" height="3.6969697"></rect>
                <rect id="Rectangle-path" x="77.6363636" y="25.8787879" width="3.6969697" height="3.6969697"></rect>
                <rect id="Rectangle-path" x="85.030303" y="25.8787879" width="3.6969697" height="3.6969697"></rect>
                <rect id="Rectangle-path" x="88.7272727" y="25.8787879" width="3.6969697" height="3.6969697"></rect>
                <rect id="Rectangle-path" x="0" y="29.5757576" width="3.6969697" height="3.6969697"></rect>
                <rect id="Rectangle-path" x="7.39393939" y="29.5757576" width="3.6969697" height="3.6969697"></rect>
                <rect id="Rectangle-path" x="11.0909091" y="29.5757576" width="3.6969697" height="3.6969697"></rect>
                <rect id="Rectangle-path" x="14.7878788" y="29.5757576" width="3.6969697" height="3.6969697"></rect>
                <rect id="Rectangle-path" x="18.4848485" y="29.5757576" width="3.6969697" height="3.6969697"></rect>
                <rect id="Rectangle-path" x="22.1818182" y="29.5757576" width="3.6969697" height="3.6969697"></rect>
                <rect id="Rectangle-path" x="36.969697" y="29.5757576" width="3.6969697" height="3.6969697"></rect>
                <rect id="Rectangle-path" x="40.6666667" y="29.5757576" width="3.6969697" height="3.6969697"></rect>
                <rect id="Rectangle-path" x="44.3636364" y="29.5757576" width="3.6969697" height="3.6969697"></rect>
                <rect id="Rectangle-path" x="48.0606061" y="29.5757576" width="3.6969697" height="3.6969697"></rect>
                <rect id="Rectangle-path" x="51.7575758" y="29.5757576" width="3.6969697" height="3.6969697"></rect>
                <rect id="Rectangle-path" x="55.4545455" y="29.5757576" width="3.6969697" height="3.6969697"></rect>
                <rect id="Rectangle-path" x="62.8484848" y="29.5757576" width="3.6969697" height="3.6969697"></rect>
                <rect id="Rectangle-path" x="81.3333333" y="29.5757576" width="3.6969697" height="3.6969697"></rect>
                <rect id="Rectangle-path" x="85.030303" y="29.5757576" width="3.6969697" height="3.6969697"></rect>
                <rect id="Rectangle-path" x="96.1212121" y="29.5757576" width="3.6969697" height="3.6969697"></rect>
                <rect id="Rectangle-path" x="99.8181818" y="29.5757576" width="3.6969697" height="3.6969697"></rect>
                <rect id="Rectangle-path" x="103.515152" y="29.5757576" width="3.6969697" height="3.6969697"></rect>
                <rect id="Rectangle-path" x="107.212121" y="29.5757576" width="3.6969697" height="3.6969697"></rect>
                <rect id="Rectangle-path" x="110.909091" y="29.5757576" width="3.6969697" height="3.6969697"></rect>
                <rect id="Rectangle-path" x="3.6969697" y="33.2727273" width="3.6969697" height="3.6969697"></rect>
                <rect id="Rectangle-path" x="7.39393939" y="33.2727273" width="3.6969697" height="3.6969697"></rect>
                <rect id="Rectangle-path" x="14.7878788" y="33.2727273" width="3.6969697" height="3.6969697"></rect>
                <rect id="Rectangle-path" x="18.4848485" y="33.2727273" width="3.6969697" height="3.6969697"></rect>
                <rect id="Rectangle-path" x="25.8787879" y="33.2727273" width="3.6969697" height="3.6969697"></rect>
                <rect id="Rectangle-path" x="40.6666667" y="33.2727273" width="3.6969697" height="3.6969697"></rect>
                <rect id="Rectangle-path" x="44.3636364" y="33.2727273" width="3.6969697" height="3.6969697"></rect>
                <rect id="Rectangle-path" x="70.2424242" y="33.2727273" width="3.6969697" height="3.6969697"></rect>
                <rect id="Rectangle-path" x="73.9393939" y="33.2727273" width="3.6969697" height="3.6969697"></rect>
                <rect id="Rectangle-path" x="77.6363636" y="33.2727273" width="3.6969697" height="3.6969697"></rect>
                <rect id="Rectangle-path" x="85.030303" y="33.2727273" width="3.6969697" height="3.6969697"></rect>
                <rect id="Rectangle-path" x="92.4242424" y="33.2727273" width="3.6969697" height="3.6969697"></rect>
                <rect id="Rectangle-path" x="96.1212121" y="33.2727273" width="3.6969697" height="3.6969697"></rect>
                <rect id="Rectangle-path" x="107.212121" y="33.2727273" width="3.6969697" height="3.6969697"></rect>
                <rect id="Rectangle-path" x="110.909091" y="33.2727273" width="3.6969697" height="3.6969697"></rect>
                <rect id="Rectangle-path" x="114.606061" y="33.2727273" width="3.6969697" height="3.6969697"></rect>
                <rect id="Rectangle-path" x="118.30303" y="33.2727273" width="3.6969697" height="3.6969697"></rect>
                <rect id="Rectangle-path" x="3.6969697" y="36.969697" width="3.6969697" height="3.6969697"></rect>
                <rect id="Rectangle-path" x="7.39393939" y="36.969697" width="3.6969697" height="3.6969697"></rect>
                <rect id="Rectangle-path" x="11.0909091" y="36.969697" width="3.6969697" height="3.6969697"></rect>
                <rect id="Rectangle-path" x="22.1818182" y="36.969697" width="3.6969697" height="3.6969697"></rect>
                <rect id="Rectangle-path" x="29.5757576" y="36.969697" width="3.6969697" height="3.6969697"></rect>
                <rect id="Rectangle-path" x="36.969697" y="36.969697" width="3.6969697" height="3.6969697"></rect>
                <rect id="Rectangle-path" x="44.3636364" y="36.969697" width="3.6969697" height="3.6969697"></rect>
                <rect id="Rectangle-path" x="55.4545455" y="36.969697" width="3.6969697" height="3.6969697"></rect>
                <rect id="Rectangle-path" x="66.5454545" y="36.969697" width="3.6969697" height="3.6969697"></rect>
                <rect id="Rectangle-path" x="73.9393939" y="36.969697" width="3.6969697" height="3.6969697"></rect>
                <rect id="Rectangle-path" x="77.6363636" y="36.969697" width="3.6969697" height="3.6969697"></rect>
                <rect id="Rectangle-path" x="103.515152" y="36.969697" width="3.6969697" height="3.6969697"></rect>
                <rect id="Rectangle-path" x="110.909091" y="36.969697" width="3.6969697" height="3.6969697"></rect>
                <rect id="Rectangle-path" x="114.606061" y="36.969697" width="3.6969697" height="3.6969697"></rect>
                <rect id="Rectangle-path" x="0" y="40.6666667" width="3.6969697" height="3.6969697"></rect>
                <rect id="Rectangle-path" x="3.6969697" y="40.6666667" width="3.6969697" height="3.6969697"></rect>
                <rect id="Rectangle-path" x="7.39393939" y="40.6666667" width="3.6969697" height="3.6969697"></rect>
                <rect id="Rectangle-path" x="11.0909091" y="40.6666667" width="3.6969697" height="3.6969697"></rect>
                <rect id="Rectangle-path" x="14.7878788" y="40.6666667" width="3.6969697" height="3.6969697"></rect>
                <rect id="Rectangle-path" x="18.4848485" y="40.6666667" width="3.6969697" height="3.6969697"></rect>
                <rect id="Rectangle-path" x="29.5757576" y="40.6666667" width="3.6969697" height="3.6969697"></rect>
                <rect id="Rectangle-path" x="33.2727273" y="40.6666667" width="3.6969697" height="3.6969697"></rect>
                <rect id="Rectangle-path" x="36.969697" y="40.6666667" width="3.6969697" height="3.6969697"></rect>
                <rect id="Rectangle-path" x="40.6666667" y="40.6666667" width="3.6969697" height="3.6969697"></rect>
                <rect id="Rectangle-path" x="51.7575758" y="40.6666667" width="3.6969697" height="3.6969697"></rect>
                <rect id="Rectangle-path" x="55.4545455" y="40.6666667" width="3.6969697" height="3.6969697"></rect>
                <rect id="Rectangle-path" x="59.1515152" y="40.6666667" width="3.6969697" height="3.6969697"></rect>
                <rect id="Rectangle-path" x="70.2424242" y="40.6666667" width="3.6969697" height="3.6969697"></rect>
                <rect id="Rectangle-path" x="73.9393939" y="40.6666667" width="3.6969697" height="3.6969697"></rect>
                <rect id="Rectangle-path" x="77.6363636" y="40.6666667" width="3.6969697" height="3.6969697"></rect>
                <rect id="Rectangle-path" x="81.3333333" y="40.6666667" width="3.6969697" height="3.6969697"></rect>
                <rect id="Rectangle-path" x="92.4242424" y="40.6666667" width="3.6969697" height="3.6969697"></rect>
                <rect id="Rectangle-path" x="96.1212121" y="40.6666667" width="3.6969697" height="3.6969697"></rect>
                <rect id="Rectangle-path" x="103.515152" y="40.6666667" width="3.6969697" height="3.6969697"></rect>
                <rect id="Rectangle-path" x="107.212121" y="40.6666667" width="3.6969697" height="3.6969697"></rect>
                <rect id="Rectangle-path" x="110.909091" y="40.6666667" width="3.6969697" height="3.6969697"></rect>
                <rect id="Rectangle-path" x="114.606061" y="40.6666667" width="3.6969697" height="3.6969697"></rect>
                <rect id="Rectangle-path" x="7.39393939" y="44.3636364" width="3.6969697" height="3.6969697"></rect>
                <rect id="Rectangle-path" x="11.0909091" y="44.3636364" width="3.6969697" height="3.6969697"></rect>
                <rect id="Rectangle-path" x="18.4848485" y="44.3636364" width="3.6969697" height="3.6969697"></rect>
                <rect id="Rectangle-path" x="22.1818182" y="44.3636364" width="3.6969697" height="3.6969697"></rect>
                <rect id="Rectangle-path" x="29.5757576" y="44.3636364" width="3.6969697" height="3.6969697"></rect>
                <rect id="Rectangle-path" x="36.969697" y="44.3636364" width="3.6969697" height="3.6969697"></rect>
                <rect id="Rectangle-path" x="40.6666667" y="44.3636364" width="3.6969697" height="3.6969697"></rect>
                <rect id="Rectangle-path" x="55.4545455" y="44.3636364" width="3.6969697" height="3.6969697"></rect>
                <rect id="Rectangle-path" x="66.5454545" y="44.3636364" width="3.6969697" height="3.6969697"></rect>
                <rect id="Rectangle-path" x="70.2424242" y="44.3636364" width="3.6969697" height="3.6969697"></rect>
                <rect id="Rectangle-path" x="77.6363636" y="44.3636364" width="3.6969697" height="3.6969697"></rect>
                <rect id="Rectangle-path" x="85.030303" y="44.3636364" width="3.6969697" height="3.6969697"></rect>
                <rect id="Rectangle-path" x="88.7272727" y="44.3636364" width="3.6969697" height="3.6969697"></rect>
                <rect id="Rectangle-path" x="92.4242424" y="44.3636364" width="3.6969697" height="3.6969697"></rect>
                <rect id="Rectangle-path" x="103.515152" y="44.3636364" width="3.6969697" height="3.6969697"></rect>
                <rect id="Rectangle-path" x="107.212121" y="44.3636364" width="3.6969697" height="3.6969697"></rect>
                <rect id="Rectangle-path" x="114.606061" y="44.3636364" width="3.6969697" height="3.6969697"></rect>
                <rect id="Rectangle-path" x="118.30303" y="44.3636364" width="3.6969697" height="3.6969697"></rect>
                <rect id="Rectangle-path" x="14.7878788" y="48.0606061" width="3.6969697" height="3.6969697"></rect>
                <rect id="Rectangle-path" x="25.8787879" y="48.0606061" width="3.6969697" height="3.6969697"></rect>
                <rect id="Rectangle-path" x="44.3636364" y="48.0606061" width="3.6969697" height="3.6969697"></rect>
                <rect id="Rectangle-path" x="48.0606061" y="48.0606061" width="3.6969697" height="3.6969697"></rect>
                <rect id="Rectangle-path" x="51.7575758" y="48.0606061" width="3.6969697" height="3.6969697"></rect>
                <rect id="Rectangle-path" x="55.4545455" y="48.0606061" width="3.6969697" height="3.6969697"></rect>
                <rect id="Rectangle-path" x="59.1515152" y="48.0606061" width="3.6969697" height="3.6969697"></rect>
                <rect id="Rectangle-path" x="73.9393939" y="48.0606061" width="3.6969697" height="3.6969697"></rect>
                <rect id="Rectangle-path" x="81.3333333" y="48.0606061" width="3.6969697" height="3.6969697"></rect>
                <rect id="Rectangle-path" x="85.030303" y="48.0606061" width="3.6969697" height="3.6969697"></rect>
                <rect id="Rectangle-path" x="96.1212121" y="48.0606061" width="3.6969697" height="3.6969697"></rect>
                <rect id="Rectangle-path" x="110.909091" y="48.0606061" width="3.6969697" height="3.6969697"></rect>
                <rect id="Rectangle-path" x="114.606061" y="48.0606061" width="3.6969697" height="3.6969697"></rect>
                <rect id="Rectangle-path" x="118.30303" y="48.0606061" width="3.6969697" height="3.6969697"></rect>
                <rect id="Rectangle-path" x="7.39393939" y="51.7575758" width="3.6969697" height="3.6969697"></rect>
                <rect id="Rectangle-path" x="14.7878788" y="51.7575758" width="3.6969697" height="3.6969697"></rect>
                <rect id="Rectangle-path" x="18.4848485" y="51.7575758" width="3.6969697" height="3.6969697"></rect>
                <rect id="Rectangle-path" x="22.1818182" y="51.7575758" width="3.6969697" height="3.6969697"></rect>
                <rect id="Rectangle-path" x="25.8787879" y="51.7575758" width="3.6969697" height="3.6969697"></rect>
                <rect id="Rectangle-path" x="29.5757576" y="51.7575758" width="3.6969697" height="3.6969697"></rect>
                <rect id="Rectangle-path" x="44.3636364" y="51.7575758" width="3.6969697" height="3.6969697"></rect>
                <rect id="Rectangle-path" x="62.8484848" y="51.7575758" width="3.6969697" height="3.6969697"></rect>
                <rect id="Rectangle-path" x="70.2424242" y="51.7575758" width="3.6969697" height="3.6969697"></rect>
                <rect id="Rectangle-path" x="81.3333333" y="51.7575758" width="3.6969697" height="3.6969697"></rect>
                <rect id="Rectangle-path" x="88.7272727" y="51.7575758" width="3.6969697" height="3.6969697"></rect>
                <rect id="Rectangle-path" x="92.4242424" y="51.7575758" width="3.6969697" height="3.6969697"></rect>
                <rect id="Rectangle-path" x="114.606061" y="51.7575758" width="3.6969697" height="3.6969697"></rect>
                <rect id="Rectangle-path" x="18.4848485" y="55.4545455" width="3.6969697" height="3.6969697"></rect>
                <rect id="Rectangle-path" x="33.2727273" y="55.4545455" width="3.6969697" height="3.6969697"></rect>
                <rect id="Rectangle-path" x="44.3636364" y="55.4545455" width="3.6969697" height="3.6969697"></rect>
                <rect id="Rectangle-path" x="51.7575758" y="55.4545455" width="3.6969697" height="3.6969697"></rect>
                <rect id="Rectangle-path" x="59.1515152" y="55.4545455" width="3.6969697" height="3.6969697"></rect>
                <rect id="Rectangle-path" x="70.2424242" y="55.4545455" width="3.6969697" height="3.6969697"></rect>
                <rect id="Rectangle-path" x="73.9393939" y="55.4545455" width="3.6969697" height="3.6969697"></rect>
                <rect id="Rectangle-path" x="77.6363636" y="55.4545455" width="3.6969697" height="3.6969697"></rect>
                <rect id="Rectangle-path" x="81.3333333" y="55.4545455" width="3.6969697" height="3.6969697"></rect>
                <rect id="Rectangle-path" x="88.7272727" y="55.4545455" width="3.6969697" height="3.6969697"></rect>
                <rect id="Rectangle-path" x="92.4242424" y="55.4545455" width="3.6969697" height="3.6969697"></rect>
                <rect id="Rectangle-path" x="96.1212121" y="55.4545455" width="3.6969697" height="3.6969697"></rect>
                <rect id="Rectangle-path" x="99.8181818" y="55.4545455" width="3.6969697" height="3.6969697"></rect>
                <rect id="Rectangle-path" x="107.212121" y="55.4545455" width="3.6969697" height="3.6969697"></rect>
                <rect id="Rectangle-path" x="110.909091" y="55.4545455" width="3.6969697" height="3.6969697"></rect>
                <rect id="Rectangle-path" x="0" y="59.1515152" width="3.6969697" height="3.6969697"></rect>
                <rect id="Rectangle-path" x="3.6969697" y="59.1515152" width="3.6969697" height="3.6969697"></rect>
                <rect id="Rectangle-path" x="7.39393939" y="59.1515152" width="3.6969697" height="3.6969697"></rect>
                <rect id="Rectangle-path" x="11.0909091" y="59.1515152" width="3.6969697" height="3.6969697"></rect>
                <rect id="Rectangle-path" x="14.7878788" y="59.1515152" width="3.6969697" height="3.6969697"></rect>
                <rect id="Rectangle-path" x="18.4848485" y="59.1515152" width="3.6969697" height="3.6969697"></rect>
                <rect id="Rectangle-path" x="22.1818182" y="59.1515152" width="3.6969697" height="3.6969697"></rect>
                <rect id="Rectangle-path" x="36.969697" y="59.1515152" width="3.6969697" height="3.6969697"></rect>
                <rect id="Rectangle-path" x="44.3636364" y="59.1515152" width="3.6969697" height="3.6969697"></rect>
                <rect id="Rectangle-path" x="62.8484848" y="59.1515152" width="3.6969697" height="3.6969697"></rect>
                <rect id="Rectangle-path" x="70.2424242" y="59.1515152" width="3.6969697" height="3.6969697"></rect>
                <rect id="Rectangle-path" x="81.3333333" y="59.1515152" width="3.6969697" height="3.6969697"></rect>
                <rect id="Rectangle-path" x="88.7272727" y="59.1515152" width="3.6969697" height="3.6969697"></rect>
                <rect id="Rectangle-path" x="92.4242424" y="59.1515152" width="3.6969697" height="3.6969697"></rect>
                <rect id="Rectangle-path" x="99.8181818" y="59.1515152" width="3.6969697" height="3.6969697"></rect>
                <rect id="Rectangle-path" x="103.515152" y="59.1515152" width="3.6969697" height="3.6969697"></rect>
                <rect id="Rectangle-path" x="118.30303" y="59.1515152" width="3.6969697" height="3.6969697"></rect>
                <rect id="Rectangle-path" x="0" y="62.8484848" width="3.6969697" height="3.6969697"></rect>
                <rect id="Rectangle-path" x="3.6969697" y="62.8484848" width="3.6969697" height="3.6969697"></rect>
                <rect id="Rectangle-path" x="7.39393939" y="62.8484848" width="3.6969697" height="3.6969697"></rect>
                <rect id="Rectangle-path" x="11.0909091" y="62.8484848" width="3.6969697" height="3.6969697"></rect>
                <rect id="Rectangle-path" x="14.7878788" y="62.8484848" width="3.6969697" height="3.6969697"></rect>
                <rect id="Rectangle-path" x="25.8787879" y="62.8484848" width="3.6969697" height="3.6969697"></rect>
                <rect id="Rectangle-path" x="29.5757576" y="62.8484848" width="3.6969697" height="3.6969697"></rect>
                <rect id="Rectangle-path" x="48.0606061" y="62.8484848" width="3.6969697" height="3.6969697"></rect>
                <rect id="Rectangle-path" x="51.7575758" y="62.8484848" width="3.6969697" height="3.6969697"></rect>
                <rect id="Rectangle-path" x="59.1515152" y="62.8484848" width="3.6969697" height="3.6969697"></rect>
                <rect id="Rectangle-path" x="62.8484848" y="62.8484848" width="3.6969697" height="3.6969697"></rect>
                <rect id="Rectangle-path" x="66.5454545" y="62.8484848" width="3.6969697" height="3.6969697"></rect>
                <rect id="Rectangle-path" x="70.2424242" y="62.8484848" width="3.6969697" height="3.6969697"></rect>
                <rect id="Rectangle-path" x="85.030303" y="62.8484848" width="3.6969697" height="3.6969697"></rect>
                <rect id="Rectangle-path" x="92.4242424" y="62.8484848" width="3.6969697" height="3.6969697"></rect>
                <rect id="Rectangle-path" x="96.1212121" y="62.8484848" width="3.6969697" height="3.6969697"></rect>
                <rect id="Rectangle-path" x="99.8181818" y="62.8484848" width="3.6969697" height="3.6969697"></rect>
                <rect id="Rectangle-path" x="107.212121" y="62.8484848" width="3.6969697" height="3.6969697"></rect>
                <rect id="Rectangle-path" x="110.909091" y="62.8484848" width="3.6969697" height="3.6969697"></rect>
                <rect id="Rectangle-path" x="118.30303" y="62.8484848" width="3.6969697" height="3.6969697"></rect>
                <rect id="Rectangle-path" x="0" y="66.5454545" width="3.6969697" height="3.6969697"></rect>
                <rect id="Rectangle-path" x="7.39393939" y="66.5454545" width="3.6969697" height="3.6969697"></rect>
                <rect id="Rectangle-path" x="14.7878788" y="66.5454545" width="3.6969697" height="3.6969697"></rect>
                <rect id="Rectangle-path" x="18.4848485" y="66.5454545" width="3.6969697" height="3.6969697"></rect>
                <rect id="Rectangle-path" x="22.1818182" y="66.5454545" width="3.6969697" height="3.6969697"></rect>
                <rect id="Rectangle-path" x="33.2727273" y="66.5454545" width="3.6969697" height="3.6969697"></rect>
                <rect id="Rectangle-path" x="36.969697" y="66.5454545" width="3.6969697" height="3.6969697"></rect>
                <rect id="Rectangle-path" x="44.3636364" y="66.5454545" width="3.6969697" height="3.6969697"></rect>
                <rect id="Rectangle-path" x="48.0606061" y="66.5454545" width="3.6969697" height="3.6969697"></rect>
                <rect id="Rectangle-path" x="51.7575758" y="66.5454545" width="3.6969697" height="3.6969697"></rect>
                <rect id="Rectangle-path" x="55.4545455" y="66.5454545" width="3.6969697" height="3.6969697"></rect>
                <rect id="Rectangle-path" x="59.1515152" y="66.5454545" width="3.6969697" height="3.6969697"></rect>
                <rect id="Rectangle-path" x="62.8484848" y="66.5454545" width="3.6969697" height="3.6969697"></rect>
                <rect id="Rectangle-path" x="73.9393939" y="66.5454545" width="3.6969697" height="3.6969697"></rect>
                <rect id="Rectangle-path" x="81.3333333" y="66.5454545" width="3.6969697" height="3.6969697"></rect>
                <rect id="Rectangle-path" x="88.7272727" y="66.5454545" width="3.6969697" height="3.6969697"></rect>
                <rect id="Rectangle-path" x="92.4242424" y="66.5454545" width="3.6969697" height="3.6969697"></rect>
                <rect id="Rectangle-path" x="103.515152" y="66.5454545" width="3.6969697" height="3.6969697"></rect>
                <rect id="Rectangle-path" x="110.909091" y="66.5454545" width="3.6969697" height="3.6969697"></rect>
                <rect id="Rectangle-path" x="0" y="70.2424242" width="3.6969697" height="3.6969697"></rect>
                <rect id="Rectangle-path" x="3.6969697" y="70.2424242" width="3.6969697" height="3.6969697"></rect>
                <rect id="Rectangle-path" x="7.39393939" y="70.2424242" width="3.6969697" height="3.6969697"></rect>
                <rect id="Rectangle-path" x="18.4848485" y="70.2424242" width="3.6969697" height="3.6969697"></rect>
                <rect id="Rectangle-path" x="25.8787879" y="70.2424242" width="3.6969697" height="3.6969697"></rect>
                <rect id="Rectangle-path" x="33.2727273" y="70.2424242" width="3.6969697" height="3.6969697"></rect>
                <rect id="Rectangle-path" x="40.6666667" y="70.2424242" width="3.6969697" height="3.6969697"></rect>
                <rect id="Rectangle-path" x="48.0606061" y="70.2424242" width="3.6969697" height="3.6969697"></rect>
                <rect id="Rectangle-path" x="55.4545455" y="70.2424242" width="3.6969697" height="3.6969697"></rect>
                <rect id="Rectangle-path" x="62.8484848" y="70.2424242" width="3.6969697" height="3.6969697"></rect>
                <rect id="Rectangle-path" x="66.5454545" y="70.2424242" width="3.6969697" height="3.6969697"></rect>
                <rect id="Rectangle-path" x="85.030303" y="70.2424242" width="3.6969697" height="3.6969697"></rect>
                <rect id="Rectangle-path" x="92.4242424" y="70.2424242" width="3.6969697" height="3.6969697"></rect>
                <rect id="Rectangle-path" x="103.515152" y="70.2424242" width="3.6969697" height="3.6969697"></rect>
                <rect id="Rectangle-path" x="107.212121" y="70.2424242" width="3.6969697" height="3.6969697"></rect>
                <rect id="Rectangle-path" x="110.909091" y="70.2424242" width="3.6969697" height="3.6969697"></rect>
                <rect id="Rectangle-path" x="0" y="73.9393939" width="3.6969697" height="3.6969697"></rect>
                <rect id="Rectangle-path" x="3.6969697" y="73.9393939" width="3.6969697" height="3.6969697"></rect>
                <rect id="Rectangle-path" x="11.0909091" y="73.9393939" width="3.6969697" height="3.6969697"></rect>
                <rect id="Rectangle-path" x="22.1818182" y="73.9393939" width="3.6969697" height="3.6969697"></rect>
                <rect id="Rectangle-path" x="33.2727273" y="73.9393939" width="3.6969697" height="3.6969697"></rect>
                <rect id="Rectangle-path" x="36.969697" y="73.9393939" width="3.6969697" height="3.6969697"></rect>
                <rect id="Rectangle-path" x="40.6666667" y="73.9393939" width="3.6969697" height="3.6969697"></rect>
                <rect id="Rectangle-path" x="44.3636364" y="73.9393939" width="3.6969697" height="3.6969697"></rect>
                <rect id="Rectangle-path" x="48.0606061" y="73.9393939" width="3.6969697" height="3.6969697"></rect>
                <rect id="Rectangle-path" x="51.7575758" y="73.9393939" width="3.6969697" height="3.6969697"></rect>
                <rect id="Rectangle-path" x="55.4545455" y="73.9393939" width="3.6969697" height="3.6969697"></rect>
                <rect id="Rectangle-path" x="59.1515152" y="73.9393939" width="3.6969697" height="3.6969697"></rect>
                <rect id="Rectangle-path" x="73.9393939" y="73.9393939" width="3.6969697" height="3.6969697"></rect>
                <rect id="Rectangle-path" x="77.6363636" y="73.9393939" width="3.6969697" height="3.6969697"></rect>
                <rect id="Rectangle-path" x="81.3333333" y="73.9393939" width="3.6969697" height="3.6969697"></rect>
                <rect id="Rectangle-path" x="85.030303" y="73.9393939" width="3.6969697" height="3.6969697"></rect>
                <rect id="Rectangle-path" x="99.8181818" y="73.9393939" width="3.6969697" height="3.6969697"></rect>
                <rect id="Rectangle-path" x="103.515152" y="73.9393939" width="3.6969697" height="3.6969697"></rect>
                <rect id="Rectangle-path" x="107.212121" y="73.9393939" width="3.6969697" height="3.6969697"></rect>
                <rect id="Rectangle-path" x="114.606061" y="73.9393939" width="3.6969697" height="3.6969697"></rect>
                <rect id="Rectangle-path" x="7.39393939" y="77.6363636" width="3.6969697" height="3.6969697"></rect>
                <rect id="Rectangle-path" x="33.2727273" y="77.6363636" width="3.6969697" height="3.6969697"></rect>
                <rect id="Rectangle-path" x="36.969697" y="77.6363636" width="3.6969697" height="3.6969697"></rect>
                <rect id="Rectangle-path" x="40.6666667" y="77.6363636" width="3.6969697" height="3.6969697"></rect>
                <rect id="Rectangle-path" x="48.0606061" y="77.6363636" width="3.6969697" height="3.6969697"></rect>
                <rect id="Rectangle-path" x="55.4545455" y="77.6363636" width="3.6969697" height="3.6969697"></rect>
                <rect id="Rectangle-path" x="62.8484848" y="77.6363636" width="3.6969697" height="3.6969697"></rect>
                <rect id="Rectangle-path" x="66.5454545" y="77.6363636" width="3.6969697" height="3.6969697"></rect>
                <rect id="Rectangle-path" x="77.6363636" y="77.6363636" width="3.6969697" height="3.6969697"></rect>
                <rect id="Rectangle-path" x="85.030303" y="77.6363636" width="3.6969697" height="3.6969697"></rect>
                <rect id="Rectangle-path" x="96.1212121" y="77.6363636" width="3.6969697" height="3.6969697"></rect>
                <rect id="Rectangle-path" x="107.212121" y="77.6363636" width="3.6969697" height="3.6969697"></rect>
                <rect id="Rectangle-path" x="110.909091" y="77.6363636" width="3.6969697" height="3.6969697"></rect>
                <rect id="Rectangle-path" x="118.30303" y="77.6363636" width="3.6969697" height="3.6969697"></rect>
                <rect id="Rectangle-path" x="3.6969697" y="81.3333333" width="3.6969697" height="3.6969697"></rect>
                <rect id="Rectangle-path" x="7.39393939" y="81.3333333" width="3.6969697" height="3.6969697"></rect>
                <rect id="Rectangle-path" x="11.0909091" y="81.3333333" width="3.6969697" height="3.6969697"></rect>
                <rect id="Rectangle-path" x="22.1818182" y="81.3333333" width="3.6969697" height="3.6969697"></rect>
                <rect id="Rectangle-path" x="29.5757576" y="81.3333333" width="3.6969697" height="3.6969697"></rect>
                <rect id="Rectangle-path" x="36.969697" y="81.3333333" width="3.6969697" height="3.6969697"></rect>
                <rect id="Rectangle-path" x="51.7575758" y="81.3333333" width="3.6969697" height="3.6969697"></rect>
                <rect id="Rectangle-path" x="55.4545455" y="81.3333333" width="3.6969697" height="3.6969697"></rect>
                <rect id="Rectangle-path" x="59.1515152" y="81.3333333" width="3.6969697" height="3.6969697"></rect>
                <rect id="Rectangle-path" x="62.8484848" y="81.3333333" width="3.6969697" height="3.6969697"></rect>
                <rect id="Rectangle-path" x="73.9393939" y="81.3333333" width="3.6969697" height="3.6969697"></rect>
                <rect id="Rectangle-path" x="77.6363636" y="81.3333333" width="3.6969697" height="3.6969697"></rect>
                <rect id="Rectangle-path" x="81.3333333" y="81.3333333" width="3.6969697" height="3.6969697"></rect>
                <rect id="Rectangle-path" x="92.4242424" y="81.3333333" width="3.6969697" height="3.6969697"></rect>
                <rect id="Rectangle-path" x="107.212121" y="81.3333333" width="3.6969697" height="3.6969697"></rect>
                <rect id="Rectangle-path" x="110.909091" y="81.3333333" width="3.6969697" height="3.6969697"></rect>
                <rect id="Rectangle-path" x="114.606061" y="81.3333333" width="3.6969697" height="3.6969697"></rect>
                <rect id="Rectangle-path" x="3.6969697" y="85.030303" width="3.6969697" height="3.6969697"></rect>
                <rect id="Rectangle-path" x="18.4848485" y="85.030303" width="3.6969697" height="3.6969697"></rect>
                <rect id="Rectangle-path" x="33.2727273" y="85.030303" width="3.6969697" height="3.6969697"></rect>
                <rect id="Rectangle-path" x="51.7575758" y="85.030303" width="3.6969697" height="3.6969697"></rect>
                <rect id="Rectangle-path" x="55.4545455" y="85.030303" width="3.6969697" height="3.6969697"></rect>
                <rect id="Rectangle-path" x="66.5454545" y="85.030303" width="3.6969697" height="3.6969697"></rect>
                <rect id="Rectangle-path" x="77.6363636" y="85.030303" width="3.6969697" height="3.6969697"></rect>
                <rect id="Rectangle-path" x="88.7272727" y="85.030303" width="3.6969697" height="3.6969697"></rect>
                <rect id="Rectangle-path" x="92.4242424" y="85.030303" width="3.6969697" height="3.6969697"></rect>
                <rect id="Rectangle-path" x="96.1212121" y="85.030303" width="3.6969697" height="3.6969697"></rect>
                <rect id="Rectangle-path" x="107.212121" y="85.030303" width="3.6969697" height="3.6969697"></rect>
                <rect id="Rectangle-path" x="110.909091" y="85.030303" width="3.6969697" height="3.6969697"></rect>
                <rect id="Rectangle-path" x="3.6969697" y="88.7272727" width="3.6969697" height="3.6969697"></rect>
                <rect id="Rectangle-path" x="7.39393939" y="88.7272727" width="3.6969697" height="3.6969697"></rect>
                <rect id="Rectangle-path" x="22.1818182" y="88.7272727" width="3.6969697" height="3.6969697"></rect>
                <rect id="Rectangle-path" x="25.8787879" y="88.7272727" width="3.6969697" height="3.6969697"></rect>
                <rect id="Rectangle-path" x="29.5757576" y="88.7272727" width="3.6969697" height="3.6969697"></rect>
                <rect id="Rectangle-path" x="33.2727273" y="88.7272727" width="3.6969697" height="3.6969697"></rect>
                <rect id="Rectangle-path" x="36.969697" y="88.7272727" width="3.6969697" height="3.6969697"></rect>
                <rect id="Rectangle-path" x="44.3636364" y="88.7272727" width="3.6969697" height="3.6969697"></rect>
                <rect id="Rectangle-path" x="48.0606061" y="88.7272727" width="3.6969697" height="3.6969697"></rect>
                <rect id="Rectangle-path" x="55.4545455" y="88.7272727" width="3.6969697" height="3.6969697"></rect>
                <rect id="Rectangle-path" x="62.8484848" y="88.7272727" width="3.6969697" height="3.6969697"></rect>
                <rect id="Rectangle-path" x="88.7272727" y="88.7272727" width="3.6969697" height="3.6969697"></rect>
                <rect id="Rectangle-path" x="92.4242424" y="88.7272727" width="3.6969697" height="3.6969697"></rect>
                <rect id="Rectangle-path" x="96.1212121" y="88.7272727" width="3.6969697" height="3.6969697"></rect>
                <rect id="Rectangle-path" x="99.8181818" y="88.7272727" width="3.6969697" height="3.6969697"></rect>
                <rect id="Rectangle-path" x="103.515152" y="88.7272727" width="3.6969697" height="3.6969697"></rect>
                <rect id="Rectangle-path" x="114.606061" y="88.7272727" width="3.6969697" height="3.6969697"></rect>
                <rect id="Rectangle-path" x="118.30303" y="88.7272727" width="3.6969697" height="3.6969697"></rect>
                <rect id="Rectangle-path" x="29.5757576" y="92.4242424" width="3.6969697" height="3.6969697"></rect>
                <rect id="Rectangle-path" x="40.6666667" y="92.4242424" width="3.6969697" height="3.6969697"></rect>
                <rect id="Rectangle-path" x="44.3636364" y="92.4242424" width="3.6969697" height="3.6969697"></rect>
                <rect id="Rectangle-path" x="48.0606061" y="92.4242424" width="3.6969697" height="3.6969697"></rect>
                <rect id="Rectangle-path" x="51.7575758" y="92.4242424" width="3.6969697" height="3.6969697"></rect>
                <rect id="Rectangle-path" x="59.1515152" y="92.4242424" width="3.6969697" height="3.6969697"></rect>
                <rect id="Rectangle-path" x="66.5454545" y="92.4242424" width="3.6969697" height="3.6969697"></rect>
                <rect id="Rectangle-path" x="70.2424242" y="92.4242424" width="3.6969697" height="3.6969697"></rect>
                <rect id="Rectangle-path" x="73.9393939" y="92.4242424" width="3.6969697" height="3.6969697"></rect>
                <rect id="Rectangle-path" x="77.6363636" y="92.4242424" width="3.6969697" height="3.6969697"></rect>
                <rect id="Rectangle-path" x="88.7272727" y="92.4242424" width="3.6969697" height="3.6969697"></rect>
                <rect id="Rectangle-path" x="103.515152" y="92.4242424" width="3.6969697" height="3.6969697"></rect>
                <rect id="Rectangle-path" x="110.909091" y="92.4242424" width="3.6969697" height="3.6969697"></rect>
                <rect id="Rectangle-path" x="118.30303" y="92.4242424" width="3.6969697" height="3.6969697"></rect>
                <rect id="Rectangle-path" x="0" y="96.1212121" width="3.6969697" height="3.6969697"></rect>
                <rect id="Rectangle-path" x="3.6969697" y="96.1212121" width="3.6969697" height="3.6969697"></rect>
                <rect id="Rectangle-path" x="7.39393939" y="96.1212121" width="3.6969697" height="3.6969697"></rect>
                <rect id="Rectangle-path" x="11.0909091" y="96.1212121" width="3.6969697" height="3.6969697"></rect>
                <rect id="Rectangle-path" x="14.7878788" y="96.1212121" width="3.6969697" height="3.6969697"></rect>
                <rect id="Rectangle-path" x="18.4848485" y="96.1212121" width="3.6969697" height="3.6969697"></rect>
                <rect id="Rectangle-path" x="22.1818182" y="96.1212121" width="3.6969697" height="3.6969697"></rect>
                <rect id="Rectangle-path" x="33.2727273" y="96.1212121" width="3.6969697" height="3.6969697"></rect>
                <rect id="Rectangle-path" x="36.969697" y="96.1212121" width="3.6969697" height="3.6969697"></rect>
                <rect id="Rectangle-path" x="48.0606061" y="96.1212121" width="3.6969697" height="3.6969697"></rect>
                <rect id="Rectangle-path" x="51.7575758" y="96.1212121" width="3.6969697" height="3.6969697"></rect>
                <rect id="Rectangle-path" x="55.4545455" y="96.1212121" width="3.6969697" height="3.6969697"></rect>
                <rect id="Rectangle-path" x="59.1515152" y="96.1212121" width="3.6969697" height="3.6969697"></rect>
                <rect id="Rectangle-path" x="66.5454545" y="96.1212121" width="3.6969697" height="3.6969697"></rect>
                <rect id="Rectangle-path" x="73.9393939" y="96.1212121" width="3.6969697" height="3.6969697"></rect>
                <rect id="Rectangle-path" x="77.6363636" y="96.1212121" width="3.6969697" height="3.6969697"></rect>
                <rect id="Rectangle-path" x="85.030303" y="96.1212121" width="3.6969697" height="3.6969697"></rect>
                <rect id="Rectangle-path" x="88.7272727" y="96.1212121" width="3.6969697" height="3.6969697"></rect>
                <rect id="Rectangle-path" x="96.1212121" y="96.1212121" width="3.6969697" height="3.6969697"></rect>
                <rect id="Rectangle-path" x="103.515152" y="96.1212121" width="3.6969697" height="3.6969697"></rect>
                <rect id="Rectangle-path" x="110.909091" y="96.1212121" width="3.6969697" height="3.6969697"></rect>
                <rect id="Rectangle-path" x="114.606061" y="96.1212121" width="3.6969697" height="3.6969697"></rect>
                <rect id="Rectangle-path" x="0" y="99.8181818" width="3.6969697" height="3.6969697"></rect>
                <rect id="Rectangle-path" x="22.1818182" y="99.8181818" width="3.6969697" height="3.6969697"></rect>
                <rect id="Rectangle-path" x="29.5757576" y="99.8181818" width="3.6969697" height="3.6969697"></rect>
                <rect id="Rectangle-path" x="33.2727273" y="99.8181818" width="3.6969697" height="3.6969697"></rect>
                <rect id="Rectangle-path" x="59.1515152" y="99.8181818" width="3.6969697" height="3.6969697"></rect>
                <rect id="Rectangle-path" x="70.2424242" y="99.8181818" width="3.6969697" height="3.6969697"></rect>
                <rect id="Rectangle-path" x="77.6363636" y="99.8181818" width="3.6969697" height="3.6969697"></rect>
                <rect id="Rectangle-path" x="81.3333333" y="99.8181818" width="3.6969697" height="3.6969697"></rect>
                <rect id="Rectangle-path" x="88.7272727" y="99.8181818" width="3.6969697" height="3.6969697"></rect>
                <rect id="Rectangle-path" x="103.515152" y="99.8181818" width="3.6969697" height="3.6969697"></rect>
                <rect id="Rectangle-path" x="110.909091" y="99.8181818" width="3.6969697" height="3.6969697"></rect>
                <rect id="Rectangle-path" x="114.606061" y="99.8181818" width="3.6969697" height="3.6969697"></rect>
                <rect id="Rectangle-path" x="118.30303" y="99.8181818" width="3.6969697" height="3.6969697"></rect>
                <rect id="Rectangle-path" x="0" y="103.515152" width="3.6969697" height="3.6969697"></rect>
                <rect id="Rectangle-path" x="7.39393939" y="103.515152" width="3.6969697" height="3.6969697"></rect>
                <rect id="Rectangle-path" x="11.0909091" y="103.515152" width="3.6969697" height="3.6969697"></rect>
                <rect id="Rectangle-path" x="14.7878788" y="103.515152" width="3.6969697" height="3.6969697"></rect>
                <rect id="Rectangle-path" x="22.1818182" y="103.515152" width="3.6969697" height="3.6969697"></rect>
                <rect id="Rectangle-path" x="29.5757576" y="103.515152" width="3.6969697" height="3.6969697"></rect>
                <rect id="Rectangle-path" x="33.2727273" y="103.515152" width="3.6969697" height="3.6969697"></rect>
                <rect id="Rectangle-path" x="44.3636364" y="103.515152" width="3.6969697" height="3.6969697"></rect>
                <rect id="Rectangle-path" x="51.7575758" y="103.515152" width="3.6969697" height="3.6969697"></rect>
                <rect id="Rectangle-path" x="66.5454545" y="103.515152" width="3.6969697" height="3.6969697"></rect>
                <rect id="Rectangle-path" x="77.6363636" y="103.515152" width="3.6969697" height="3.6969697"></rect>
                <rect id="Rectangle-path" x="88.7272727" y="103.515152" width="3.6969697" height="3.6969697"></rect>
                <rect id="Rectangle-path" x="92.4242424" y="103.515152" width="3.6969697" height="3.6969697"></rect>
                <rect id="Rectangle-path" x="96.1212121" y="103.515152" width="3.6969697" height="3.6969697"></rect>
                <rect id="Rectangle-path" x="99.8181818" y="103.515152" width="3.6969697" height="3.6969697"></rect>
                <rect id="Rectangle-path" x="103.515152" y="103.515152" width="3.6969697" height="3.6969697"></rect>
                <rect id="Rectangle-path" x="107.212121" y="103.515152" width="3.6969697" height="3.6969697"></rect>
                <rect id="Rectangle-path" x="114.606061" y="103.515152" width="3.6969697" height="3.6969697"></rect>
                <rect id="Rectangle-path" x="118.30303" y="103.515152" width="3.6969697" height="3.6969697"></rect>
                <rect id="Rectangle-path" x="0" y="107.212121" width="3.6969697" height="3.6969697"></rect>
                <rect id="Rectangle-path" x="7.39393939" y="107.212121" width="3.6969697" height="3.6969697"></rect>
                <rect id="Rectangle-path" x="11.0909091" y="107.212121" width="3.6969697" height="3.6969697"></rect>
                <rect id="Rectangle-path" x="14.7878788" y="107.212121" width="3.6969697" height="3.6969697"></rect>
                <rect id="Rectangle-path" x="22.1818182" y="107.212121" width="3.6969697" height="3.6969697"></rect>
                <rect id="Rectangle-path" x="29.5757576" y="107.212121" width="3.6969697" height="3.6969697"></rect>
                <rect id="Rectangle-path" x="33.2727273" y="107.212121" width="3.6969697" height="3.6969697"></rect>
                <rect id="Rectangle-path" x="36.969697" y="107.212121" width="3.6969697" height="3.6969697"></rect>
                <rect id="Rectangle-path" x="44.3636364" y="107.212121" width="3.6969697" height="3.6969697"></rect>
                <rect id="Rectangle-path" x="55.4545455" y="107.212121" width="3.6969697" height="3.6969697"></rect>
                <rect id="Rectangle-path" x="59.1515152" y="107.212121" width="3.6969697" height="3.6969697"></rect>
                <rect id="Rectangle-path" x="62.8484848" y="107.212121" width="3.6969697" height="3.6969697"></rect>
                <rect id="Rectangle-path" x="73.9393939" y="107.212121" width="3.6969697" height="3.6969697"></rect>
                <rect id="Rectangle-path" x="81.3333333" y="107.212121" width="3.6969697" height="3.6969697"></rect>
                <rect id="Rectangle-path" x="85.030303" y="107.212121" width="3.6969697" height="3.6969697"></rect>
                <rect id="Rectangle-path" x="92.4242424" y="107.212121" width="3.6969697" height="3.6969697"></rect>
                <rect id="Rectangle-path" x="99.8181818" y="107.212121" width="3.6969697" height="3.6969697"></rect>
                <rect id="Rectangle-path" x="103.515152" y="107.212121" width="3.6969697" height="3.6969697"></rect>
                <rect id="Rectangle-path" x="107.212121" y="107.212121" width="3.6969697" height="3.6969697"></rect>
                <rect id="Rectangle-path" x="118.30303" y="107.212121" width="3.6969697" height="3.6969697"></rect>
                <rect id="Rectangle-path" x="0" y="110.909091" width="3.6969697" height="3.6969697"></rect>
                <rect id="Rectangle-path" x="7.39393939" y="110.909091" width="3.6969697" height="3.6969697"></rect>
                <rect id="Rectangle-path" x="11.0909091" y="110.909091" width="3.6969697" height="3.6969697"></rect>
                <rect id="Rectangle-path" x="14.7878788" y="110.909091" width="3.6969697" height="3.6969697"></rect>
                <rect id="Rectangle-path" x="22.1818182" y="110.909091" width="3.6969697" height="3.6969697"></rect>
                <rect id="Rectangle-path" x="29.5757576" y="110.909091" width="3.6969697" height="3.6969697"></rect>
                <rect id="Rectangle-path" x="33.2727273" y="110.909091" width="3.6969697" height="3.6969697"></rect>
                <rect id="Rectangle-path" x="40.6666667" y="110.909091" width="3.6969697" height="3.6969697"></rect>
                <rect id="Rectangle-path" x="44.3636364" y="110.909091" width="3.6969697" height="3.6969697"></rect>
                <rect id="Rectangle-path" x="51.7575758" y="110.909091" width="3.6969697" height="3.6969697"></rect>
                <rect id="Rectangle-path" x="70.2424242" y="110.909091" width="3.6969697" height="3.6969697"></rect>
                <rect id="Rectangle-path" x="81.3333333" y="110.909091" width="3.6969697" height="3.6969697"></rect>
                <rect id="Rectangle-path" x="85.030303" y="110.909091" width="3.6969697" height="3.6969697"></rect>
                <rect id="Rectangle-path" x="88.7272727" y="110.909091" width="3.6969697" height="3.6969697"></rect>
                <rect id="Rectangle-path" x="92.4242424" y="110.909091" width="3.6969697" height="3.6969697"></rect>
                <rect id="Rectangle-path" x="96.1212121" y="110.909091" width="3.6969697" height="3.6969697"></rect>
                <rect id="Rectangle-path" x="99.8181818" y="110.909091" width="3.6969697" height="3.6969697"></rect>
                <rect id="Rectangle-path" x="110.909091" y="110.909091" width="3.6969697" height="3.6969697"></rect>
                <rect id="Rectangle-path" x="0" y="114.606061" width="3.6969697" height="3.6969697"></rect>
                <rect id="Rectangle-path" x="22.1818182" y="114.606061" width="3.6969697" height="3.6969697"></rect>
                <rect id="Rectangle-path" x="33.2727273" y="114.606061" width="3.6969697" height="3.6969697"></rect>
                <rect id="Rectangle-path" x="36.969697" y="114.606061" width="3.6969697" height="3.6969697"></rect>
                <rect id="Rectangle-path" x="59.1515152" y="114.606061" width="3.6969697" height="3.6969697"></rect>
                <rect id="Rectangle-path" x="66.5454545" y="114.606061" width="3.6969697" height="3.6969697"></rect>
                <rect id="Rectangle-path" x="70.2424242" y="114.606061" width="3.6969697" height="3.6969697"></rect>
                <rect id="Rectangle-path" x="73.9393939" y="114.606061" width="3.6969697" height="3.6969697"></rect>
                <rect id="Rectangle-path" x="77.6363636" y="114.606061" width="3.6969697" height="3.6969697"></rect>
                <rect id="Rectangle-path" x="92.4242424" y="114.606061" width="3.6969697" height="3.6969697"></rect>
                <rect id="Rectangle-path" x="96.1212121" y="114.606061" width="3.6969697" height="3.6969697"></rect>
                <rect id="Rectangle-path" x="99.8181818" y="114.606061" width="3.6969697" height="3.6969697"></rect>
                <rect id="Rectangle-path" x="103.515152" y="114.606061" width="3.6969697" height="3.6969697"></rect>
                <rect id="Rectangle-path" x="107.212121" y="114.606061" width="3.6969697" height="3.6969697"></rect>
                <rect id="Rectangle-path" x="110.909091" y="114.606061" width="3.6969697" height="3.6969697"></rect>
                <rect id="Rectangle-path" x="0" y="118.30303" width="3.6969697" height="3.6969697"></rect>
                <rect id="Rectangle-path" x="3.6969697" y="118.30303" width="3.6969697" height="3.6969697"></rect>
                <rect id="Rectangle-path" x="7.39393939" y="118.30303" width="3.6969697" height="3.6969697"></rect>
                <rect id="Rectangle-path" x="11.0909091" y="118.30303" width="3.6969697" height="3.6969697"></rect>
                <rect id="Rectangle-path" x="14.7878788" y="118.30303" width="3.6969697" height="3.6969697"></rect>
                <rect id="Rectangle-path" x="18.4848485" y="118.30303" width="3.6969697" height="3.6969697"></rect>
                <rect id="Rectangle-path" x="22.1818182" y="118.30303" width="3.6969697" height="3.6969697"></rect>
                <rect id="Rectangle-path" x="29.5757576" y="118.30303" width="3.6969697" height="3.6969697"></rect>
                <rect id="Rectangle-path" x="33.2727273" y="118.30303" width="3.6969697" height="3.6969697"></rect>
                <rect id="Rectangle-path" x="40.6666667" y="118.30303" width="3.6969697" height="3.6969697"></rect>
                <rect id="Rectangle-path" x="44.3636364" y="118.30303" width="3.6969697" height="3.6969697"></rect>
                <rect id="Rectangle-path" x="48.0606061" y="118.30303" width="3.6969697" height="3.6969697"></rect>
                <rect id="Rectangle-path" x="51.7575758" y="118.30303" width="3.6969697" height="3.6969697"></rect>
                <rect id="Rectangle-path" x="62.8484848" y="118.30303" width="3.6969697" height="3.6969697"></rect>
                <rect id="Rectangle-path" x="70.2424242" y="118.30303" width="3.6969697" height="3.6969697"></rect>
                <rect id="Rectangle-path" x="81.3333333" y="118.30303" width="3.6969697" height="3.6969697"></rect>
                <rect id="Rectangle-path" x="85.030303" y="118.30303" width="3.6969697" height="3.6969697"></rect>
                <rect id="Rectangle-path" x="88.7272727" y="118.30303" width="3.6969697" height="3.6969697"></rect>
                <rect id="Rectangle-path" x="96.1212121" y="118.30303" width="3.6969697" height="3.6969697"></rect>
                <rect id="Rectangle-path" x="99.8181818" y="118.30303" width="3.6969697" height="3.6969697"></rect>
                <rect id="Rectangle-path" x="103.515152" y="118.30303" width="3.6969697" height="3.6969697"></rect>
                <rect id="Rectangle-path" x="114.606061" y="118.30303" width="3.6969697" height="3.6969697"></rect>
            </g>
        </g>
    </g>
</svg>